E:\HaldocPracticeSet\Rupeek-API\src\test\java\common\utils\Logger.java
E:\HaldocPracticeSet\Rupeek-API\src\test\java\api\utils\POST.java
E:\HaldocPracticeSet\Rupeek-API\src\test\java\api\payloads\helper\Headers.java
E:\HaldocPracticeSet\Rupeek-API\src\test\java\tools\BaseTest.java
E:\HaldocPracticeSet\Rupeek-API\src\test\java\api\payloads\helper\UserModel.java
E:\HaldocPracticeSet\Rupeek-API\src\test\java\api\test\RupeekAPItest.java
E:\HaldocPracticeSet\Rupeek-API\src\test\java\api\payload\Payload.java
E:\HaldocPracticeSet\Rupeek-API\src\test\java\api\payload\Endpoints.java
E:\HaldocPracticeSet\Rupeek-API\src\test\java\report\CreateHTMLReport.java
E:\HaldocPracticeSet\Rupeek-API\src\test\java\api\utils\GET.java
E:\HaldocPracticeSet\Rupeek-API\src\test\java\report\Reporter.java
E:\HaldocPracticeSet\Rupeek-API\src\test\java\tools\DataProvider.java
E:\HaldocPracticeSet\Rupeek-API\src\test\java\tools\Status.java
